
R=0 (#00)
G\ 0 1 2 3 4 5 <-- B
 0 @ @ @ @ @ @|
 1 @ @ @ @ @ .|
 2 @ @ @ . @ @|
 3 @ @ . @ .  |
 4 @ @ @ . @  |
 5 @ . @     @|
---------------
total=26

R=1 (#7C)
G\ 0 1 2 3 4 5 <-- B
 0 @ @ @ @ @ .|
 1 @ @ @ @ @ .|
 2 @ @ @ . @ .|
 3 @ @ . @ . .|
 4 @ @ @ . @ .|
 5 . . . . . .|
---------------
total=21

R=2 (#AA)
G\ 0 1 2 3 4 5 <-- B
 0 @ @ @ . @ @|
 1 @ @ @ . @ .|
 2 @ @ @ . @ @|
 3 . . . . .  |
 4 @ @ @ . @  |
 5 @ . @     @|
---------------
total=21

R=3 (#CB)
G\ 0 1 2 3 4 5 <-- B
 0 @ @ . @ .  |
 1 @ @ . @ . .|
 2 . . . . .  |
 3 @ @ . @ . .|
 4 . . . . .  |
 5   .   .   .|
---------------
total=9

R=4 (#E7)
G\ 0 1 2 3 4 5 <-- B
 0 @ @ @ . @  |
 1 @ @ @ . @ .|
 2 @ @ @ . @  |
 3 . . . . .  |
 4 @ @ @ . @  |
 5   .        |
---------------
total=16

R=5 (#FF)
G\ 0 1 2 3 4 5 <-- B
 0 @ . @     @|
 1 . . . . . .|
 2 @ . @     @|
 3   .   .   .|
 4   .        |
 5 @ . @ .   @|
---------------
total=9

Total colors: 102
Needed colors: 78

EGA black is 0 (err=0.00%)	#000000
EGA blue is 144 (err=0.00%)	#0000AA
EGA green is 192 (err=0.00%)	#00AA00
EGA cyan is 201 (err=0.00%)	#00AAAA
EGA red is 160 (err=0.00%)	#AA0000
EGA magenta is 169 (err=0.00%)	#AA00AA
EGA brown is 164 (err=15.29%)	#AA7C00
EGA white is 203 (err=0.00%)	#AAAAAA
EGA gray is 11 (err=1.96%)	#585858
EGA bright blue is 42 (err=21.57%)	#7C7CFF
EGA bright green is 55 (err=21.57%)	#7CFF7C
EGA bright cyan is 59 (err=15.29%)	#7CFFFF
EGA bright red is 140 (err=21.57%)	#FF7C7C
EGA bright magenta is 154 (err=15.29%)	#FF7CFF
EGA bright yellow is 171 (err=15.29%)	#FFFF7C
EGA bright white is 255 (err=0.00%)	#FFFFFF
